ChartPlot/signal samples100kHz/SDS00008.csv

Record Length,Analog:14000
Sample Interval,CH:0.0000099999997
Vertical Units,CH1:V,,,
Vertical Scale,CH1:+2.240000E-01,,,
Vertical Offset,CH1:+0.000000E+00,,,
Horizontal Units,us,,,
Horizontal Scale,10000.0000000000,,,
Model Number,SDS1104X-E,,,
Serial Number,SDSMMEBX3R1990,,,
Software Version,8.1.6.1.33,,,
Source,CH1
Second,Volt
+0.000000E+00,-3.852800E-01
+1.000000E-05,-3.852800E-01
+2.000000E-05,-3.852800E-01
+3.000000E-05,-4.121600E-01
+4.000000E-05,-4.211200E-01
+5.000000E-05,-4.211200E-01
+6.000000E-05,-4.211200E-01
+7.000000E-05,-3.942400E-01
+8.000000E-05,-3.673600E-01
+9.000000E-05,-3.494400E-01
+1.000000E-04,-3.404800E-01
+1.100000E-04,-3.404800E-01
+1.200000E-04,-3.942400E-01
+1.300000E-04,-3.225600E-01
+1.400000E-04,-3.494400E-01
+1.500000E-04,-3.404800E-01
+1.600000E-04,-3.584000E-01
+1.700000E-04,-2.777600E-01
+1.800000E-04,-3.494400E-01
+1.900000E-04,-3.584000E-01
+2.000000E-04,-3.763200E-01
+2.100000E-04,-3.852800E-01
+2.200000E-04,-3.763200E-01
+2.300000E-04,-3.942400E-01
+2.400000E-04,-4.032000E-01
+2.500000E-04,-3.852800E-01
+2.600000E-04,-3.584000E-01
+2.700000E-04,-3.494400E-01
+2.800000E-04,-3.225600E-01
+2.900000E-04,-3.225600E-01
+3.000000E-04,-2.956800E-01
+3.100000E-04,-3.046400E-01
+3.200000E-04,-3.225600E-01
+3.300000E-04,-3.315200E-01
+3.400000E-04,-3.404800E-01
+3.500000E-04,-3.404800E-01
+3.600000E-04,-3.315200E-01
+3.700000E-04,-3.315200E-01
+3.800000E-04,-3.315200E-01
+3.900000E-04,-3.225600E-01
+4.000000E-04,-3.136000E-01
+4.100000E-04,-3.673600E-01
+4.200000E-04,-3.584000E-01
+4.300000E-04,-3.584000E-01
+4.400000E-04,-3.673600E-01
+4.500000E-04,-3.494400E-01
+4.600000E-04,-3.225600E-01
+4.700000E-04,-3.046400E-01
+4.800000E-04,-2.867200E-01
+4.900000E-04,-2.777600E-01
+5.000000E-04,-2.419200E-01
+5.100000E-04,-2.867200E-01
+5.200000E-04,-2.956800E-01
+5.300000E-04,-2.956800E-01
+5.400000E-04,-2.956800E-01
+5.500000E-04,-2.956800E-01
+5.600000E-04,-2.956800E-01
+5.700000E-04,-3.046400E-01
+5.800000E-04,-2.956800E-01
+5.900000E-04,-3.046400E-01
+6.000000E-04,-3.046400E-01
+6.100000E-04,-3.046400E-01
+6.200000E-04,-3.136000E-01
+6.300000E-04,-3.046400E-01
+6.400000E-04,-3.046400E-01
+6.500000E-04,-2.956800E-01
+6.600000E-04,-2.777600E-01
+6.700000E-04,-2.688000E-01
+6.800000E-04,-2.688000E-01
+6.900000E-04,-2.688000E-01
+7.000000E-04,-2.598400E-01
+7.100000E-04,-2.688000E-01
+7.200000E-04,-2.688000E-01
+7.300000E-04,-2.777600E-01
+7.400000E-04,-2.956800E-01
+7.500000E-04,-2.777600E-01
+7.600000E-04,-2.688000E-01
+7.700000E-04,-2.688000E-01
+7.800000E-04,-2.688000E-01
+7.900000E-04,-2.777600E-01
+8.000000E-04,-2.867200E-01
+8.100000E-04,-2.777600E-01
+8.200000E-04,-2.777600E-01
+8.300000E-04,-2.867200E-01
+8.400000E-04,-2.688000E-01
+8.500000E-04,-2.508800E-01
+8.600000E-04,-2.329600E-01
+8.700000E-04,-2.240000E-01
+8.800000E-04,-2.329600E-01
+8.900000E-04,-2.329600E-01
+9.000000E-04,-2.240000E-01
+9.100000E-04,-2.508800E-01
+9.200000E-04,-2.508800E-01
+9.300000E-04,-2.419200E-01
+9.400000E-04,-2.329600E-01
+9.500000E-04,-2.419200E-01
+9.600000E-04,-2.240000E-01
+9.700000E-04,-5.376000E-02
+9.800000E-04,-2.598400E-01
+9.900000E-04,-2.240000E-01
+1.000000E-03,-2.777600E-01
+1.010000E-03,-2.688000E-01
+1.020000E-03,-2.598400E-01
+1.030000E-03,-2.508800E-01
+1.040000E-03,-2.240000E-01
+1.050000E-03,-1.971200E-01
+1.060000E-03,-1.971200E-01
+1.070000E-03,-1.881600E-01
+1.080000E-03,-1.881600E-01
+1.090000E-03,-1.881600E-01
+1.100000E-03,-1.881600E-01
+1.110000E-03,-1.971200E-01
+1.120000E-03,-1.971200E-01
+1.130000E-03,-1.971200E-01
+1.140000E-03,-1.971200E-01
+1.150000E-03,-2.060800E-01
+1.160000E-03,-1.881600E-01
+1.170000E-03,-1.971200E-01
+1.180000E-03,-1.971200E-01
+1.190000E-03,-2.150400E-01
+1.200000E-03,-2.240000E-01
+1.210000E-03,-2.329600E-01
+1.220000E-03,-2.060800E-01
+1.230000E-03,-1.881600E-01
+1.240000E-03,-1.792000E-01
+1.250000E-03,-1.612800E-01
+1.260000E-03,-1.523200E-01
+1.270000E-03,-1.612800E-01
+1.280000E-03,-1.344000E-01
+1.290000E-03,-1.344000E-01
+1.300000E-03,-1.702400E-01
+1.310000E-03,-1.702400E-01
+1.320000E-03,-1.792000E-01
+1.330000E-03,-1.612800E-01
+1.340000E-03,-1.523200E-01
+1.350000E-03,-2.329600E-01
+1.360000E-03,-1.612800E-01
+1.370000E-03,-1.792000E-01
+1.380000E-03,-1.702400E-01
+1.390000E-03,-1.702400E-01
+1.400000E-03,-1.792000E-01
+1.410000E-03,-1.702400E-01
+1.420000E-03,-1.612800E-01
+1.430000E-03,-1.612800E-01
+1.440000E-03,-1.523200E-01
+1.450000E-03,-1.523200E-01
+1.460000E-03,-1.344000E-01
+1.470000E-03,-1.612800E-01
+1.480000E-03,-1.433600E-01
+1.490000E-03,-1.344000E-01
+1.500000E-03,-1.344000E-01
+1.510000E-03,-1.344000E-01
+1.520000E-03,-1.344000E-01
+1.530000E-03,-1.344000E-01
+1.540000E-03,-1.344000E-01
+1.550000E-03,-1.344000E-01
+1.560000E-03,-1.344000E-01
+1.570000E-03,-1.433600E-01
+1.580000E-03,-1.344000E-01
+1.590000E-03,-1.344000E-01
+1.600000E-03,-1.433600E-01
+1.610000E-03,-1.344000E-01
+1.620000E-03,-1.254400E-01
+1.630000E-03,-1.164800E-01
+1.640000E-03,-1.075200E-01
+1.650000E-03,-1.075200E-01
+1.660000E-03,-9.856001E-02
+1.670000E-03,-1.075200E-01
+1.680000E-03,-1.075200E-01
+1.690000E-03,-1.075200E-01
+1.700000E-03,-1.075200E-01
+1.710000E-03,-1.075200E-01
+1.720000E-03,-1.164800E-01
+1.730000E-03,-1.164800E-01
+1.740000E-03,-1.164800E-01
+1.750000E-03,-1.164800E-01
+1.760000E-03,-1.164800E-01
+1.770000E-03,-9.856001E-02
+1.780000E-03,-1.254400E-01
+1.790000E-03,-1.254400E-01
+1.800000E-03,-1.075200E-01
+1.810000E-03,-9.856001E-02
+1.820000E-03,-8.960000E-02
+1.830000E-03,-8.064000E-02
+1.840000E-03,-8.960000E-02
+1.850000E-03,-8.960000E-02
+1.860000E-03,-8.064000E-02
+1.870000E-03,-5.376000E-02
+1.880000E-03,-8.960000E-02
+1.890000E-03,-8.960000E-02
+1.900000E-03,-8.064000E-02
+1.910000E-03,-8.064000E-02
+1.920000E-03,-8.064000E-02
+1.930000E-03,-8.064000E-02
+1.940000E-03,-8.960000E-02
+1.950000E-03,-8.960000E-02
+1.960000E-03,-8.064000E-02
+1.970000E-03,-9.856001E-02
+1.980000E-03,-9.856001E-02
+1.990000E-03,-8.960000E-02
+2.000000E-03,-7.168000E-02
+2.010000E-03,-7.168000E-02
+2.020000E-03,-6.272000E-02
+2.030000E-03,-6.272000E-02
+2.040000E-03,-5.376000E-02
+2.050000E-03,-7.168000E-02
+2.060000E-03,-7.168000E-02
+2.070000E-03,-5.376000E-02
+2.080000E-03,-6.272000E-02
+2.090000E-03,-6.272000E-02
+2.100000E-03,-4.480000E-02
+2.110000E-03,-5.376000E-02
+2.120000E-03,-4.480000E-02
+2.130000E-03,-2.688000E-02
+2.140000E-03,-4.480000E-02
+2.150000E-03,-4.480000E-02
+2.160000E-03,-5.376000E-02
+2.170000E-03,-5.376000E-02
+2.180000E-03,-5.376000E-02
+2.190000E-03,-5.376000E-02
+2.200000E-03,-3.584000E-02
+2.210000E-03,-4.480000E-02
+2.220000E-03,-4.480000E-02
+2.230000E-03,-3.584000E-02
+2.240000E-03,-4.480000E-02
+2.250000E-03,-5.376000E-02
+2.260000E-03,-5.376000E-02
+2.270000E-03,-3.584000E-02
+2.280000E-03,-3.584000E-02
+2.290000E-03,-3.584000E-02
+2.300000E-03,-3.584000E-02
+2.310000E-03,-3.584000E-02
+2.320000E-03,-2.688000E-02
+2.330000E-03,-2.688000E-02
+2.340000E-03,-3.584000E-02
+2.350000E-03,-2.688000E-02
+2.360000E-03,+0.000000E+00
+2.370000E-03,-1.792000E-02
+2.380000E-03,-1.792000E-02
+2.390000E-03,-1.792000E-02
+2.400000E-03,-1.792000E-02
+2.410000E-03,-8.960000E-03
+2.420000E-03,-2.688000E-02
+2.430000E-03,-1.792000E-02
+2.440000E-03,-5.376000E-02
+2.450000E-03,-8.960000E-03
+2.460000E-03,-8.960000E-03
+2.470000E-03,+0.000000E+00
+2.480000E-03,+1.792000E-02
+2.490000E-03,+0.000000E+00
+2.500000E-03,+0.000000E+00
+2.510000E-03,+0.000000E+00
+2.520000E-03,+2.688000E-02
+2.530000E-03,+2.060800E-01
+2.540000E-03,-1.702400E-01
+2.550000E-03,-4.480000E-02
+2.560000E-03,+2.688000E-02
+2.570000E-03,+4.480000E-02
+2.580000E-03,+1.792000E-02
+2.590000E-03,+1.792000E-02
+2.600000E-03,+2.688000E-02
+2.610000E-03,+8.960000E-03
+2.620000E-03,+3.584000E-02
+2.630000E-03,+1.792000E-02
+2.640000E-03,+1.792000E-02
+2.650000E-03,+3.584000E-02
+2.660000E-03,+4.480000E-02
+2.670000E-03,+3.584000E-02
+2.680000E-03,+3.584000E-02
+2.690000E-03,+2.688000E-02
+2.700000E-03,+3.584000E-02
+2.710000E-03,+3.584000E-02
+2.720000E-03,+3.584000E-02
+2.730000E-03,+2.688000E-02
+2.740000E-03,+4.480000E-02
+2.750000E-03,+4.480000E-02
+2.760000E-03,+4.480000E-02
+2.770000E-03,+3.584000E-02
+2.780000E-03,+4.480000E-02
+2.790000E-03,+4.480000E-02
+2.800000E-03,+4.480000E-02
+2.810000E-03,+4.480000E-02
+2.820000E-03,+3.584000E-02
+2.830000E-03,+5.376000E-02
+2.840000E-03,+4.480000E-02
+2.850000E-03,+5.376000E-02
+2.860000E-03,+5.376000E-02
+2.870000E-03,+5.376000E-02
+2.880000E-03,+6.272000E-02
+2.890000E-03,+5.376000E-02
+2.900000E-03,+5.376000E-02
+2.910000E-03,+6.272000E-02
+2.920000E-03,+5.376000E-02
+2.930000E-03,+5.376000E-02
+2.940000E-03,+5.376000E-02
+2.950000E-03,+6.272000E-02
+2.960000E-03,+6.272000E-02
+2.970000E-03,+5.376000E-02
+2.980000E-03,+6.272000E-02
+2.990000E-03,+5.376000E-02
+3.000000E-03,+5.376000E-02
+3.010000E-03,+4.480000E-02
+3.020000E-03,+5.376000E-02
+3.030000E-03,+4.480000E-02
+3.040000E-03,+4.480000E-02
+3.050000E-03,+5.376000E-02
+3.060000E-03,+4.480000E-02
+3.070000E-03,+4.480000E-02
+3.080000E-03,+4.480000E-02
+3.090000E-03,+4.480000E-02
+3.100000E-03,+6.272000E-02
+3.110000E-03,+5.376000E-02
+3.120000E-03,+5.376000E-02
+3.130000E-03,+5.376000E-02
+3.140000E-03,+5.376000E-02
+3.150000E-03,+5.376000E-02
+3.160000E-03,+5.376000E-02
+3.170000E-03,+5.376000E-02
+3.180000E-03,+5.376000E-02
+3.190000E-03,+5.376000E-02
+3.200000E-03,+5.376000E-02
+3.210000E-03,+5.376000E-02
+3.220000E-03,+5.376000E-02
+3.230000E-03,+4.480000E-02
+3.240000E-03,+5.376000E-02
+3.250000E-03,+5.376000E-02
+3.260000E-03,+4.480000E-02
+3.270000E-03,+5.376000E-02
+3.280000E-03,+4.480000E-02
+3.290000E-03,+5.376000E-02
+3.300000E-03,+5.376000E-02
+3.310000E-03,+4.480000E-02
+3.320000E-03,+4.480000E-02
+3.330000E-03,+4.480000E-02
+3.340000E-03,+4.480000E-02
+3.350000E-03,+5.376000E-02
+3.360000E-03,+5.376000E-02
+3.370000E-03,+5.376000E-02
+3.380000E-03,+4.480000E-02
+3.390000E-03,+4.480000E-02
+3.400000E-03,+5.376000E-02
+3.410000E-03,+5.376000E-02
+3.420000E-03,+5.376000E-02
+3.430000E-03,+5.376000E-02
+3.440000E-03,+5.376000E-02
+3.450000E-03,+6.272000E-02
+3.460000E-03,+6.272000E-02
+3.470000E-03,+5.376000E-02
+3.480000E-03,+5.376000E-02
+3.490000E-03,+5.376000E-02
+3.500000E-03,+4.480000E-02
+3.510000E-03,+4.480000E-02
+3.520000E-03,+4.480000E-02
+3.530000E-03,+4.480000E-02
+3.540000E-03,+4.480000E-02
+3.550000E-03,+4.480000E-02
+3.560000E-03,+5.376000E-02
+3.570000E-03,+4.480000E-02
+3.580000E-03,+4.480000E-02
+3.590000E-03,+5.376000E-02
+3.600000E-03,+5.376000E-02
+3.610000E-03,+4.480000E-02
+3.620000E-03,+5.376000E-02
+3.630000E-03,+5.376000E-02
+3.640000E-03,+4.480000E-02
+3.650000E-03,+5.376000E-02
+3.660000E-03,+5.376000E-02
+3.670000E-03,+5.376000E-02
+3.680000E-03,+5.376000E-02
+3.690000E-03,+4.480000E-02
+3.700000E-03,+4.480000E-02
+3.710000E-03,+4.480000E-02
+3.720000E-03,+4.480000E-02
+3.730000E-03,+4.480000E-02
+3.740000E-03,+4.480000E-02
+3.750000E-03,+4.480000E-02
+3.760000E-03,+4.480000E-02
+3.770000E-03,+5.376000E-02
+3.780000E-03,+4.480000E-02
+3.790000E-03,+5.376000E-02
+3.800000E-03,+5.376000E-02
+3.810000E-03,+4.480000E-02
+3.820000E-03,+4.480000E-02
+3.830000E-03,+4.480000E-02
+3.840000E-03,+5.376000E-02
+3.850000E-03,+4.480000E-02
+3.860000E-03,+5.376000E-02
+3.870000E-03,+4.480000E-02
+3.880000E-03,+4.480000E-02
+3.890000E-03,+4.480000E-02
+3.900000E-03,+4.480000E-02
+3.910000E-03,+4.480000E-02
+3.920000E-03,+4.480000E-02
+3.930000E-03,+4.480000E-02
+3.940000E-03,+4.480000E-02
+3.950000E-03,+5.376000E-02
+3.960000E-03,+5.376000E-02
+3.970000E-03,+4.480000E-02
+3.980000E-03,+5.376000E-02
+3.990000E-03,+5.376000E-02
+4.000000E-03,+5.376000E-02
+4.010000E-03,+5.376000E-02
+4.020000E-03,+5.376000E-02
+4.030000E-03,+5.376000E-02
+4.040000E-03,+5.376000E-02
+4.050000E-03,+4.480000E-02
+4.060000E-03,+5.376000E-02
+4.070000E-03,+5.376000E-02
+4.080000E-03,+5.376000E-02
+4.090000E-03,+4.480000E-02
+4.100000E-03,+4.480000E-02
+4.110000E-03,+4.480000E-02
+4.120000E-03,+4.480000E-02
+4.130000E-03,+4.480000E-02
+4.140000E-03,+4.480000E-02
+4.150000E-03,+4.480000E-02
+4.160000E-03,+4.480000E-02
+4.170000E-03,+5.376000E-02
+4.180000E-03,+4.480000E-02
+4.190000E-03,+6.272000E-02
+4.200000E-03,+5.376000E-02
+4.210000E-03,+4.480000E-02
+4.220000E-03,+5.376000E-02
+4.230000E-03,+5.376000E-02
+4.240000E-03,+5.376000E-02
+4.250000E-03,+5.376000E-02
+4.260000E-03,+5.376000E-02
+4.270000E-03,+4.480000E-02
+4.280000E-03,+4.480000E-02
+4.290000E-03,+4.480000E-02
+4.300000E-03,+4.480000E-02
+4.310000E-03,+5.376000E-02
+4.320000E-03,+5.376000E-02
+4.330000E-03,+4.480000E-02
+4.340000E-03,+5.376000E-02
+4.350000E-03,+5.376000E-02
+4.360000E-03,+5.376000E-02
+4.370000E-03,+4.480000E-02
+4.380000E-03,+5.376000E-02
+4.390000E-03,+4.480000E-02
+4.400000E-03,+3.584000E-02
+4.410000E-03,+4.480000E-02
+4.420000E-03,+4.480000E-02
+4.430000E-03,+4.480000E-02
+4.440000E-03,+4.480000E-02
+4.450000E-03,+4.480000E-02
+4.460000E-03,+4.480000E-02
+4.470000E-03,+4.480000E-02
+4.480000E-03,+4.480000E-02
+4.490000E-03,+4.480000E-02
+4.500000E-03,+5.376000E-02
+4.510000E-03,+5.376000E-02
+4.520000E-03,+4.480000E-02
+4.530000E-03,+4.480000E-02
+4.540000E-03,+5.376000E-02
+4.550000E-03,+4.480000E-02
+4.560000E-03,+4.480000E-02
+4.570000E-03,+4.480000E-02
+4.580000E-03,+4.480000E-02
+4.590000E-03,+3.584000E-02
+4.600000E-03,+3.584000E-02
+4.610000E-03,+4.480000E-02
+4.620000E-03,+4.480000E-02
+4.630000E-03,+4.480000E-02
+4.640000E-03,+4.480000E-02
+4.650000E-03,+3.584000E-02
+4.660000E-03,+3.584000E-02
+4.670000E-03,+4.480000E-02
+4.680000E-03,+4.480000E-02
+4.690000E-03,+4.480000E-02
+4.700000E-03,+4.480000E-02
+4.710000E-03,+4.480000E-02
+4.720000E-03,+4.480000E-02
+4.730000E-03,+4.480000E-02
+4.740000E-03,+4.480000E-02
+4.750000E-03,+4.480000E-02
+4.760000E-03,+4.480000E-02
+4.770000E-03,+4.480000E-02
+4.780000E-03,+5.376000E-02
+4.790000E-03,+6.272000E-02
+4.800000E-03,+8.960000E-02
+4.810000E-03,+1.075200E-01
+4.820000E-03,+1.344000E-01
+4.830000E-03,+1.254400E-01
+4.840000E-03,+1.344000E-01
+4.850000E-03,+1.433600E-01
+4.860000E-03,+1.612800E-01
+4.870000E-03,+1.881600E-01
+4.880000E-03,+1.881600E-01
+4.890000E-03,+1.881600E-01
+4.900000E-03,+1.881600E-01
+4.910000E-03,+1.881600E-01
+4.920000E-03,+1.881600E-01
+4.930000E-03,+2.060800E-01
+4.940000E-03,+1.971200E-01
+4.950000E-03,+2.150400E-01
+4.960000E-03,+2.060800E-01
+4.970000E-03,+2.150400E-01
+4.980000E-03,+2.060800E-01
+4.990000E-03,+2.419200E-01
+5.000000E-03,+2.329600E-01
+5.010000E-03,+2.150400E-01
+5.020000E-03,+2.150400E-01
+5.030000E-03,+2.419200E-01
+5.040000E-03,+2.508800E-01
+5.050000E-03,+2.508800E-01
+5.060000E-03,+2.598400E-01
+5.070000E-03,+2.419200E-01
+5.080000E-03,+2.508800E-01
+5.090000E-03,+2.508800E-01
+5.100000E-03,+2.329600E-01
+5.110000E-03,+2.240000E-01
+5.120000E-03,+2.240000E-01
+5.130000E-03,+2.329600E-01
+5.140000E-03,+2.598400E-01
+5.150000E-03,+2.329600E-01
+5.160000E-03,+2.419200E-01
+5.170000E-03,+2.508800E-01
+5.180000E-03,+2.419200E-01
+5.190000E-03,+2.419200E-01
+5.200000E-03,+2.419200E-01
+5.210000E-03,+2.419200E-01
+5.220000E-03,+2.329600E-01
+5.230000E-03,+2.688000E-01
+5.240000E-03,+2.688000E-01
+5.250000E-03,+2.688000E-01
+5.260000E-03,+2.688000E-01
+5.270000E-03,+2.777600E-01
+5.280000E-03,+2.777600E-01
+5.290000E-03,+2.508800E-01
+5.300000E-03,+2.598400E-01
+5.310000E-03,+2.867200E-01
+5.320000E-03,+2.956800E-01
+5.330000E-03,+3.046400E-01
+5.340000E-03,+2.956800E-01
+5.350000E-03,+3.046400E-01
+5.360000E-03,+2.956800E-01
+5.370000E-03,+2.956800E-01
+5.380000E-03,+2.956800E-01
+5.390000E-03,+2.867200E-01
+5.400000E-03,+2.956800E-01
+5.410000E-03,+3.046400E-01
+5.420000E-03,+3.046400E-01
+5.430000E-03,+3.315200E-01
+5.440000E-03,+3.225600E-01
+5.450000E-03,+3.315200E-01
+5.460000E-03,+3.136000E-01
+5.470000E-03,+2.956800E-01
+5.480000E-03,+2.867200E-01
+5.490000E-03,+2.867200E-01
+5.500000E-03,+2.777600E-01
+5.510000E-03,+3.046400E-01
+5.520000E-03,+3.225600E-01
+5.530000E-03,+3.225600E-01
+5.540000E-03,+3.225600E-01
+5.550000E-03,+3.225600E-01
+5.560000E-03,+3.225600E-01
+5.570000E-03,+3.225600E-01
+5.580000E-03,+3.046400E-01
+5.590000E-03,+3.315200E-01
+5.600000E-03,+3.494400E-01
+5.610000E-03,+3.584000E-01
+5.620000E-03,+3.763200E-01
+5.630000E-03,+3.673600E-01
+5.640000E-03,+3.584000E-01
+5.650000E-03,+3.315200E-01
+5.660000E-03,+3.225600E-01
+5.670000E-03,+3.046400E-01
+5.680000E-03,+3.046400E-01
+5.690000E-03,+2.419200E-01
+5.700000E-03,+3.315200E-01
+5.710000E-03,+3.404800E-01
+5.720000E-03,+3.494400E-01
+5.730000E-03,+3.404800E-01
+5.740000E-03,+3.404800E-01
+5.750000E-03,+3.315200E-01
+5.760000E-03,+3.315200E-01
+5.770000E-03,+3.315200E-01
+5.780000E-03,+3.315200E-01
+5.790000E-03,+3.315200E-01
+5.800000E-03,+3.673600E-01
+5.810000E-03,+3.852800E-01
+5.820000E-03,+3.852800E-01
+5.830000E-03,+3.852800E-01
+5.840000E-03,+3.494400E-01
+5.850000E-03,+3.404800E-01
+5.860000E-03,+3.225600E-01
+5.870000E-03,+3.225600E-01
+5.880000E-03,+3.404800E-01
+5.890000E-03,+3.225600E-01
+5.900000E-03,+3.315200E-01
+5.910000E-03,+3.494400E-01
+5.920000E-03,+3.673600E-01
+5.930000E-03,+3.673600E-01
+5.940000E-03,+3.584000E-01
+5.950000E-03,+3.673600E-01
+5.960000E-03,+3.494400E-01
+5.970000E-03,+3.494400E-01
+5.980000E-03,+3.494400E-01
+5.990000E-03,+3.494400E-01
+6.000000E-03,+3.673600E-01
+6.010000E-03,+3.673600E-01
+6.020000E-03,+3.763200E-01
+6.030000E-03,+3.763200E-01
+6.040000E-03,+3.673600E-01
+6.050000E-03,+3.584000E-01
+6.060000E-03,+3.584000E-01
+6.070000E-03,+3.494400E-01
+6.080000E-03,+3.584000E-01
+6.090000E-03,+3.673600E-01
+6.100000E-03,+3.763200E-01
+6.110000E-03,+3.852800E-01
+6.120000E-03,+3.852800E-01
+6.130000E-03,+3.852800E-01
+6.140000E-03,+3.852800E-01
+6.150000E-03,+3.942400E-01
+6.160000E-03,+3.942400E-01
+6.170000E-03,+3.942400E-01
+6.180000E-03,+4.121600E-01
+6.190000E-03,+4.121600E-01
+6.200000E-03,+4.121600E-01
+6.210000E-03,+4.032000E-01
+6.220000E-03,+3.942400E-01
+6.230000E-03,+3.942400E-01
+6.240000E-03,+3.763200E-01
+6.250000E-03,+3.584000E-01
+6.260000E-03,+3.584000E-01
+6.270000E-03,+3.494400E-01
+6.280000E-03,+3.673600E-01
+6.290000E-03,+3.315200E-01
+6.300000E-03,+3.763200E-01
+6.310000E-03,+3.942400E-01
+6.320000E-03,+3.942400E-01
+6.330000E-03,+4.032000E-01
+6.340000E-03,+4.121600E-01
+6.350000E-03,+3.942400E-01
+6.360000E-03,+4.121600E-01
+6.370000E-03,+4.390400E-01
+6.380000E-03,+4.659200E-01
+6.390000E-03,+4.659200E-01
+6.400000E-03,+4.659200E-01
+6.410000E-03,+4.480000E-01
+6.420000E-03,+4.300800E-01
+6.430000E-03,+4.032000E-01
+6.440000E-03,+3.852800E-01
+6.450000E-03,+3.763200E-01
+6.460000E-03,+3.763200E-01
+6.470000E-03,+3.852800E-01
+6.480000E-03,+3.942400E-01
+6.490000E-03,+4.121600E-01
+6.500000E-03,+4.121600E-01
+6.510000E-03,+4.211200E-01
+6.520000E-03,+4.300800E-01
+6.530000E-03,+4.211200E-01
+6.540000E-03,+4.211200E-01
+6.550000E-03,+4.211200E-01
+6.560000E-03,+4.300800E-01
+6.570000E-03,+4.569600E-01
+6.580000E-03,+4.659200E-01
+6.590000E-03,+4.748800E-01
+6.600000E-03,+5.555200E-01
+6.610000E-03,+4.480000E-01
+6.620000E-03,+4.300800E-01
+6.630000E-03,+4.121600E-01
+6.640000E-03,+4.032000E-01
+6.650000E-03,+4.032000E-01
+6.660000E-03,+3.404800E-01
+6.670000E-03,+4.121600E-01
+6.680000E-03,+4.480000E-01
+6.690000E-03,+4.569600E-01
+6.700000E-03,+4.390400E-01
+6.710000E-03,+4.390400E-01
+6.720000E-03,+4.300800E-01
+6.730000E-03,+4.390400E-01
+6.740000E-03,+4.300800E-01
+6.750000E-03,+4.390400E-01
+6.760000E-03,+4.480000E-01
+6.770000E-03,+4.480000E-01
+6.780000E-03,+4.569600E-01
+6.790000E-03,+4.659200E-01
+6.800000E-03,+4.659200E-01
+6.810000E-03,+4.390400E-01
+6.820000E-03,+4.211200E-01
+6.830000E-03,+4.390400E-01
+6.840000E-03,+4.032000E-01
+6.850000E-03,+4.300800E-01
+6.860000E-03,+4.390400E-01
+6.870000E-03,+4.300800E-01
+6.880000E-03,+3.852800E-01
+6.890000E-03,+3.942400E-01
+6.900000E-03,+4.390400E-01
+6.910000E-03,+4.211200E-01
+6.920000E-03,+4.480000E-01
+6.930000E-03,+5.017600E-01
+6.940000E-03,+4.748800E-01
+6.950000E-03,+4.838400E-01
+6.960000E-03,+5.286400E-01
+6.970000E-03,+5.376000E-01
+6.980000E-03,+5.107200E-01
+6.990000E-03,+4.748800E-01
+7.000000E-03,+4.480000E-01
+7.010000E-03,+4.211200E-01
